{
    "energy": 6500,
    "particle_mass": 0.938,
    "emittance": 0.0000035,
    "beta_star": {
        "IP1": 20,
        "IP2": 21,
        "IP5": 20,
        "IP8": 23
    },
    "crossing_angle": {
        "IP1": 0,
        "IP2": 0.0002,
        "IP5": 0,
        "IP8": 0.0002
    },
    "scan_limits": {
        "IP1": 6,
        "IP2": 4,
        "IP5": 6,
        "IP8": 4
    },
    "trim_rate": 0.1,
    "intensity": 100000000000,
    "bunch_pair_collisions": {
        "IP1": 50,
        "IP2": 50,
        "IP5": 50,
        "IP8": 50
    },
    "bunch_length": 0.0787
}
