0 INITIALIZE_TRIM IP(IP5) BEAM(BEAM1,BEAM2) PLANE(SEPARATION,CROSSING) UNITS(SIGMA)
1 SECONDS_WAIT 30.0
2 RELATIVE_TRIM IP5 BEAM1 SEPARATION -2.12 SIGMA IP5 BEAM1 CROSSING -2.12 SIGMA IP5 BEAM2 SEPARATION 2.12 SIGMA IP5 BEAM2 CROSSING 2.12 SIGMA
3 SECONDS_WAIT 30.0
4 RELATIVE_TRIM IP5 BEAM1 SEPARATION 0.3536 SIGMA IP5 BEAM1 CROSSING 0.3536 SIGMA IP5 BEAM2 SEPARATION -0.3536 SIGMA IP5 BEAM2 CROSSING -0.3536 SIGMA
5 SECONDS_WAIT 30.0
6 RELATIVE_TRIM IP5 BEAM1 SEPARATION 0.3536 SIGMA IP5 BEAM1 CROSSING 0.3536 SIGMA IP5 BEAM2 SEPARATION -0.3536 SIGMA IP5 BEAM2 CROSSING -0.3536 SIGMA
7 SECONDS_WAIT 30.0
8 RELATIVE_TRIM IP5 BEAM1 SEPARATION 0.3536 SIGMA IP5 BEAM1 CROSSING 0.3536 SIGMA IP5 BEAM2 SEPARATION -0.3536 SIGMA IP5 BEAM2 CROSSING -0.3536 SIGMA
9 SECONDS_WAIT 30.0
10 RELATIVE_TRIM IP5 BEAM1 SEPARATION 0.3536 SIGMA IP5 BEAM1 CROSSING 0.3536 SIGMA IP5 BEAM2 SEPARATION -0.3536 SIGMA IP5 BEAM2 CROSSING -0.3536 SIGMA
11 SECONDS_WAIT 30.0
12 RELATIVE_TRIM IP5 BEAM1 SEPARATION 0.3536 SIGMA IP5 BEAM1 CROSSING 0.3536 SIGMA IP5 BEAM2 SEPARATION -0.3536 SIGMA IP5 BEAM2 CROSSING -0.3536 SIGMA
13 SECONDS_WAIT 30.0
14 RELATIVE_TRIM IP5 BEAM1 SEPARATION 0.3536 SIGMA IP5 BEAM1 CROSSING 0.3536 SIGMA IP5 BEAM2 SEPARATION -0.3536 SIGMA IP5 BEAM2 CROSSING -0.3536 SIGMA
15 SECONDS_WAIT 30.0
16 RELATIVE_TRIM IP5 BEAM1 SEPARATION 0.3536 SIGMA IP5 BEAM1 CROSSING 0.3536 SIGMA IP5 BEAM2 SEPARATION -0.3536 SIGMA IP5 BEAM2 CROSSING -0.3536 SIGMA
17 SECONDS_WAIT 30.0
18 RELATIVE_TRIM IP5 BEAM1 SEPARATION 0.3536 SIGMA IP5 BEAM1 CROSSING 0.3536 SIGMA IP5 BEAM2 SEPARATION -0.3536 SIGMA IP5 BEAM2 CROSSING -0.3536 SIGMA
19 SECONDS_WAIT 30.0
20 RELATIVE_TRIM IP5 BEAM1 SEPARATION 0.3536 SIGMA IP5 BEAM1 CROSSING 0.3536 SIGMA IP5 BEAM2 SEPARATION -0.3536 SIGMA IP5 BEAM2 CROSSING -0.3536 SIGMA
21 SECONDS_WAIT 30.0
22 RELATIVE_TRIM IP5 BEAM1 SEPARATION 0.3536 SIGMA IP5 BEAM1 CROSSING 0.3536 SIGMA IP5 BEAM2 SEPARATION -0.3536 SIGMA IP5 BEAM2 CROSSING -0.3536 SIGMA
23 SECONDS_WAIT 30.0
24 RELATIVE_TRIM IP5 BEAM1 SEPARATION 0.3536 SIGMA IP5 BEAM1 CROSSING 0.3536 SIGMA IP5 BEAM2 SEPARATION -0.3536 SIGMA IP5 BEAM2 CROSSING -0.3536 SIGMA
25 SECONDS_WAIT 30.0
26 RELATIVE_TRIM IP5 BEAM1 SEPARATION 0.3536 SIGMA IP5 BEAM1 CROSSING 0.3536 SIGMA IP5 BEAM2 SEPARATION -0.3536 SIGMA IP5 BEAM2 CROSSING -0.3536 SIGMA
27 SECONDS_WAIT 30.0
28 RELATIVE_TRIM IP5 BEAM1 SEPARATION -2.12 SIGMA IP5 BEAM1 CROSSING -2.12 SIGMA IP5 BEAM2 SEPARATION 2.12 SIGMA IP5 BEAM2 CROSSING 2.12 SIGMA
29 SECONDS_WAIT 30.0
30 END_SEQUENCE
