0 INITIALIZE_TRIM IP(IP8) BEAM(BEAM1,BEAM2) PLANE(SEPARATION,CROSSING) UNITS(MM)
1 START_FIT SEPARATION GAUSSIAN_PLUS_CONSTANT
2 SECONDS_WAIT 10.0
3 RELATIVE_TRIM IP8 BEAM1 SEPARATION -0.27 MM IP8 BEAM2 SEPARATION 0.27 MM
4 SECONDS_WAIT 10.0
5 RELATIVE_TRIM IP8 BEAM1 SEPARATION 0.018 MM IP8 BEAM2 SEPARATION -0.018 MM
6 SECONDS_WAIT 10.0
7 RELATIVE_TRIM IP8 BEAM1 SEPARATION 0.018 MM IP8 BEAM2 SEPARATION -0.018 MM
8 SECONDS_WAIT 10.0
9 RELATIVE_TRIM IP8 BEAM1 SEPARATION 0.018 MM IP8 BEAM2 SEPARATION -0.018 MM
10 SECONDS_WAIT 10.0
11 RELATIVE_TRIM IP8 BEAM1 SEPARATION 0.018 MM IP8 BEAM2 SEPARATION -0.018 MM
12 SECONDS_WAIT 10.0
13 RELATIVE_TRIM IP8 BEAM1 SEPARATION 0.018 MM IP8 BEAM2 SEPARATION -0.018 MM
14 SECONDS_WAIT 10.0
15 RELATIVE_TRIM IP8 BEAM1 SEPARATION 0.018 MM IP8 BEAM2 SEPARATION -0.018 MM
16 SECONDS_WAIT 10.0
17 RELATIVE_TRIM IP8 BEAM1 SEPARATION 0.018 MM IP8 BEAM2 SEPARATION -0.018 MM
18 SECONDS_WAIT 10.0
19 RELATIVE_TRIM IP8 BEAM1 SEPARATION 0.018 MM IP8 BEAM2 SEPARATION -0.018 MM
20 SECONDS_WAIT 10.0
21 RELATIVE_TRIM IP8 BEAM1 SEPARATION 0.018 MM IP8 BEAM2 SEPARATION -0.018 MM
22 SECONDS_WAIT 10.0
23 RELATIVE_TRIM IP8 BEAM1 SEPARATION 0.018 MM IP8 BEAM2 SEPARATION -0.018 MM
24 SECONDS_WAIT 10.0
25 RELATIVE_TRIM IP8 BEAM1 SEPARATION 0.018 MM IP8 BEAM2 SEPARATION -0.018 MM
26 SECONDS_WAIT 10.0
27 RELATIVE_TRIM IP8 BEAM1 SEPARATION 0.018 MM IP8 BEAM2 SEPARATION -0.018 MM
28 SECONDS_WAIT 10.0
29 RELATIVE_TRIM IP8 BEAM1 SEPARATION 0.018 MM IP8 BEAM2 SEPARATION -0.018 MM
30 SECONDS_WAIT 10.0
31 RELATIVE_TRIM IP8 BEAM1 SEPARATION 0.018 MM IP8 BEAM2 SEPARATION -0.018 MM
32 SECONDS_WAIT 10.0
33 RELATIVE_TRIM IP8 BEAM1 SEPARATION 0.018 MM IP8 BEAM2 SEPARATION -0.018 MM
34 SECONDS_WAIT 10.0
35 RELATIVE_TRIM IP8 BEAM1 SEPARATION 0.018 MM IP8 BEAM2 SEPARATION -0.018 MM
36 SECONDS_WAIT 10.0
37 RELATIVE_TRIM IP8 BEAM1 SEPARATION 0.018 MM IP8 BEAM2 SEPARATION -0.018 MM
38 SECONDS_WAIT 10.0
39 RELATIVE_TRIM IP8 BEAM1 SEPARATION 0.018 MM IP8 BEAM2 SEPARATION -0.018 MM
40 SECONDS_WAIT 10.0
41 RELATIVE_TRIM IP8 BEAM1 SEPARATION 0.018 MM IP8 BEAM2 SEPARATION -0.018 MM
42 SECONDS_WAIT 10.0
43 RELATIVE_TRIM IP8 BEAM1 SEPARATION 0.018 MM IP8 BEAM2 SEPARATION -0.018 MM
44 SECONDS_WAIT 10.0
45 RELATIVE_TRIM IP8 BEAM1 SEPARATION 0.018 MM IP8 BEAM2 SEPARATION -0.018 MM
46 SECONDS_WAIT 10.0
47 RELATIVE_TRIM IP8 BEAM1 SEPARATION 0.018 MM IP8 BEAM2 SEPARATION -0.018 MM
48 SECONDS_WAIT 10.0
49 RELATIVE_TRIM IP8 BEAM1 SEPARATION 0.018 MM IP8 BEAM2 SEPARATION -0.018 MM
50 SECONDS_WAIT 10.0
51 RELATIVE_TRIM IP8 BEAM1 SEPARATION 0.018 MM IP8 BEAM2 SEPARATION -0.018 MM
52 SECONDS_WAIT 10.0
53 RELATIVE_TRIM IP8 BEAM1 SEPARATION 0.018 MM IP8 BEAM2 SEPARATION -0.018 MM
54 SECONDS_WAIT 10.0
55 RELATIVE_TRIM IP8 BEAM1 SEPARATION 0.018 MM IP8 BEAM2 SEPARATION -0.018 MM
56 SECONDS_WAIT 10.0
57 RELATIVE_TRIM IP8 BEAM1 SEPARATION 0.018 MM IP8 BEAM2 SEPARATION -0.018 MM
58 SECONDS_WAIT 10.0
59 RELATIVE_TRIM IP8 BEAM1 SEPARATION 0.018 MM IP8 BEAM2 SEPARATION -0.018 MM
60 SECONDS_WAIT 10.0
61 RELATIVE_TRIM IP8 BEAM1 SEPARATION 0.018 MM IP8 BEAM2 SEPARATION -0.018 MM
62 SECONDS_WAIT 10.0
63 RELATIVE_TRIM IP8 BEAM1 SEPARATION 0.018 MM IP8 BEAM2 SEPARATION -0.018 MM
64 SECONDS_WAIT 10.0
65 RELATIVE_TRIM IP8 BEAM1 SEPARATION -0.27 MM IP8 BEAM2 SEPARATION 0.27 MM
66 SECONDS_WAIT 10.0
67 END_FIT
68 START_FIT CROSSING GAUSSIAN_PLUS_CONSTANT
69 SECONDS_WAIT 10.0
70 RELATIVE_TRIM IP8 BEAM1 CROSSING -0.27 MM IP8 BEAM2 CROSSING 0.27 MM
71 SECONDS_WAIT 10.0
72 RELATIVE_TRIM IP8 BEAM1 CROSSING 0.018 MM IP8 BEAM2 CROSSING -0.018 MM
73 SECONDS_WAIT 10.0
74 RELATIVE_TRIM IP8 BEAM1 CROSSING 0.018 MM IP8 BEAM2 CROSSING -0.018 MM
75 SECONDS_WAIT 10.0
76 RELATIVE_TRIM IP8 BEAM1 CROSSING 0.018 MM IP8 BEAM2 CROSSING -0.018 MM
77 SECONDS_WAIT 10.0
78 RELATIVE_TRIM IP8 BEAM1 CROSSING 0.018 MM IP8 BEAM2 CROSSING -0.018 MM
79 SECONDS_WAIT 10.0
80 RELATIVE_TRIM IP8 BEAM1 CROSSING 0.018 MM IP8 BEAM2 CROSSING -0.018 MM
81 SECONDS_WAIT 10.0
82 RELATIVE_TRIM IP8 BEAM1 CROSSING 0.018 MM IP8 BEAM2 CROSSING -0.018 MM
83 SECONDS_WAIT 10.0
84 RELATIVE_TRIM IP8 BEAM1 CROSSING 0.018 MM IP8 BEAM2 CROSSING -0.018 MM
85 SECONDS_WAIT 10.0
86 RELATIVE_TRIM IP8 BEAM1 CROSSING 0.018 MM IP8 BEAM2 CROSSING -0.018 MM
87 SECONDS_WAIT 10.0
88 RELATIVE_TRIM IP8 BEAM1 CROSSING 0.018 MM IP8 BEAM2 CROSSING -0.018 MM
89 SECONDS_WAIT 10.0
90 RELATIVE_TRIM IP8 BEAM1 CROSSING 0.018 MM IP8 BEAM2 CROSSING -0.018 MM
91 SECONDS_WAIT 10.0
92 RELATIVE_TRIM IP8 BEAM1 CROSSING 0.018 MM IP8 BEAM2 CROSSING -0.018 MM
93 SECONDS_WAIT 10.0
94 RELATIVE_TRIM IP8 BEAM1 CROSSING 0.018 MM IP8 BEAM2 CROSSING -0.018 MM
95 SECONDS_WAIT 10.0
96 RELATIVE_TRIM IP8 BEAM1 CROSSING 0.018 MM IP8 BEAM2 CROSSING -0.018 MM
97 SECONDS_WAIT 10.0
98 RELATIVE_TRIM IP8 BEAM1 CROSSING 0.018 MM IP8 BEAM2 CROSSING -0.018 MM
99 SECONDS_WAIT 10.0
100 RELATIVE_TRIM IP8 BEAM1 CROSSING 0.018 MM IP8 BEAM2 CROSSING -0.018 MM
101 SECONDS_WAIT 10.0
102 RELATIVE_TRIM IP8 BEAM1 CROSSING 0.018 MM IP8 BEAM2 CROSSING -0.018 MM
103 SECONDS_WAIT 10.0
104 RELATIVE_TRIM IP8 BEAM1 CROSSING 0.018 MM IP8 BEAM2 CROSSING -0.018 MM
105 SECONDS_WAIT 10.0
106 RELATIVE_TRIM IP8 BEAM1 CROSSING 0.018 MM IP8 BEAM2 CROSSING -0.018 MM
107 SECONDS_WAIT 10.0
108 RELATIVE_TRIM IP8 BEAM1 CROSSING 0.018 MM IP8 BEAM2 CROSSING -0.018 MM
109 SECONDS_WAIT 10.0
110 RELATIVE_TRIM IP8 BEAM1 CROSSING 0.018 MM IP8 BEAM2 CROSSING -0.018 MM
111 SECONDS_WAIT 10.0
112 RELATIVE_TRIM IP8 BEAM1 CROSSING 0.018 MM IP8 BEAM2 CROSSING -0.018 MM
113 SECONDS_WAIT 10.0
114 RELATIVE_TRIM IP8 BEAM1 CROSSING 0.018 MM IP8 BEAM2 CROSSING -0.018 MM
115 SECONDS_WAIT 10.0
116 RELATIVE_TRIM IP8 BEAM1 CROSSING 0.018 MM IP8 BEAM2 CROSSING -0.018 MM
117 SECONDS_WAIT 10.0
118 RELATIVE_TRIM IP8 BEAM1 CROSSING 0.018 MM IP8 BEAM2 CROSSING -0.018 MM
119 SECONDS_WAIT 10.0
120 RELATIVE_TRIM IP8 BEAM1 CROSSING 0.018 MM IP8 BEAM2 CROSSING -0.018 MM
121 SECONDS_WAIT 10.0
122 RELATIVE_TRIM IP8 BEAM1 CROSSING 0.018 MM IP8 BEAM2 CROSSING -0.018 MM
123 SECONDS_WAIT 10.0
124 RELATIVE_TRIM IP8 BEAM1 CROSSING 0.018 MM IP8 BEAM2 CROSSING -0.018 MM
125 SECONDS_WAIT 10.0
126 RELATIVE_TRIM IP8 BEAM1 CROSSING 0.018 MM IP8 BEAM2 CROSSING -0.018 MM
127 SECONDS_WAIT 10.0
128 RELATIVE_TRIM IP8 BEAM1 CROSSING 0.018 MM IP8 BEAM2 CROSSING -0.018 MM
129 SECONDS_WAIT 10.0
130 RELATIVE_TRIM IP8 BEAM1 CROSSING 0.018 MM IP8 BEAM2 CROSSING -0.018 MM
131 SECONDS_WAIT 10.0
132 RELATIVE_TRIM IP8 BEAM1 CROSSING -0.27 MM IP8 BEAM2 CROSSING 0.27 MM
133 SECONDS_WAIT 10.0
134 END_FIT
135 END_SEQUENCE
