0 INITIALIZE_TRIM IP(IP8) BEAM(BEAM1,BEAM2) PLANE(SEPARATION,CROSSING) UNITS(MM)
1 SECONDS_WAIT 10.0
2 RELATIVE_TRIM IP8 BEAM1 SEPARATION -0.225 MM IP8 BEAM1 CROSSING -0.225 MM IP8 BEAM2 SEPARATION 0.225 MM IP8 BEAM2 CROSSING 0.225 MM
3 SECONDS_WAIT 10.0
4 RELATIVE_TRIM IP8 BEAM1 SEPARATION 0.015 MM IP8 BEAM1 CROSSING 0.015 MM IP8 BEAM2 SEPARATION -0.015 MM IP8 BEAM2 CROSSING -0.015 MM
5 SECONDS_WAIT 10.0
6 RELATIVE_TRIM IP8 BEAM1 SEPARATION 0.015 MM IP8 BEAM1 CROSSING 0.015 MM IP8 BEAM2 SEPARATION -0.015 MM IP8 BEAM2 CROSSING -0.015 MM
7 SECONDS_WAIT 10.0
8 RELATIVE_TRIM IP8 BEAM1 SEPARATION 0.015 MM IP8 BEAM1 CROSSING 0.015 MM IP8 BEAM2 SEPARATION -0.015 MM IP8 BEAM2 CROSSING -0.015 MM
9 SECONDS_WAIT 10.0
10 RELATIVE_TRIM IP8 BEAM1 SEPARATION 0.015 MM IP8 BEAM1 CROSSING 0.015 MM IP8 BEAM2 SEPARATION -0.015 MM IP8 BEAM2 CROSSING -0.015 MM
11 SECONDS_WAIT 10.0
12 RELATIVE_TRIM IP8 BEAM1 SEPARATION 0.015 MM IP8 BEAM1 CROSSING 0.015 MM IP8 BEAM2 SEPARATION -0.015 MM IP8 BEAM2 CROSSING -0.015 MM
13 SECONDS_WAIT 10.0
14 RELATIVE_TRIM IP8 BEAM1 SEPARATION 0.015 MM IP8 BEAM1 CROSSING 0.015 MM IP8 BEAM2 SEPARATION -0.015 MM IP8 BEAM2 CROSSING -0.015 MM
15 SECONDS_WAIT 10.0
16 RELATIVE_TRIM IP8 BEAM1 SEPARATION 0.015 MM IP8 BEAM1 CROSSING 0.015 MM IP8 BEAM2 SEPARATION -0.015 MM IP8 BEAM2 CROSSING -0.015 MM
17 SECONDS_WAIT 10.0
18 RELATIVE_TRIM IP8 BEAM1 SEPARATION 0.015 MM IP8 BEAM1 CROSSING 0.015 MM IP8 BEAM2 SEPARATION -0.015 MM IP8 BEAM2 CROSSING -0.015 MM
19 SECONDS_WAIT 10.0
20 RELATIVE_TRIM IP8 BEAM1 SEPARATION 0.015 MM IP8 BEAM1 CROSSING 0.015 MM IP8 BEAM2 SEPARATION -0.015 MM IP8 BEAM2 CROSSING -0.015 MM
21 SECONDS_WAIT 10.0
22 RELATIVE_TRIM IP8 BEAM1 SEPARATION 0.015 MM IP8 BEAM1 CROSSING 0.015 MM IP8 BEAM2 SEPARATION -0.015 MM IP8 BEAM2 CROSSING -0.015 MM
23 SECONDS_WAIT 10.0
24 RELATIVE_TRIM IP8 BEAM1 SEPARATION 0.015 MM IP8 BEAM1 CROSSING 0.015 MM IP8 BEAM2 SEPARATION -0.015 MM IP8 BEAM2 CROSSING -0.015 MM
25 SECONDS_WAIT 10.0
26 RELATIVE_TRIM IP8 BEAM1 SEPARATION 0.015 MM IP8 BEAM1 CROSSING 0.015 MM IP8 BEAM2 SEPARATION -0.015 MM IP8 BEAM2 CROSSING -0.015 MM
27 SECONDS_WAIT 10.0
28 RELATIVE_TRIM IP8 BEAM1 SEPARATION 0.015 MM IP8 BEAM1 CROSSING 0.015 MM IP8 BEAM2 SEPARATION -0.015 MM IP8 BEAM2 CROSSING -0.015 MM
29 SECONDS_WAIT 10.0
30 RELATIVE_TRIM IP8 BEAM1 SEPARATION 0.015 MM IP8 BEAM1 CROSSING 0.015 MM IP8 BEAM2 SEPARATION -0.015 MM IP8 BEAM2 CROSSING -0.015 MM
31 SECONDS_WAIT 10.0
32 RELATIVE_TRIM IP8 BEAM1 SEPARATION 0.015 MM IP8 BEAM1 CROSSING 0.015 MM IP8 BEAM2 SEPARATION -0.015 MM IP8 BEAM2 CROSSING -0.015 MM
33 SECONDS_WAIT 10.0
34 RELATIVE_TRIM IP8 BEAM1 SEPARATION 0.015 MM IP8 BEAM1 CROSSING 0.015 MM IP8 BEAM2 SEPARATION -0.015 MM IP8 BEAM2 CROSSING -0.015 MM
35 SECONDS_WAIT 10.0
36 RELATIVE_TRIM IP8 BEAM1 SEPARATION 0.015 MM IP8 BEAM1 CROSSING 0.015 MM IP8 BEAM2 SEPARATION -0.015 MM IP8 BEAM2 CROSSING -0.015 MM
37 SECONDS_WAIT 10.0
38 RELATIVE_TRIM IP8 BEAM1 SEPARATION 0.015 MM IP8 BEAM1 CROSSING 0.015 MM IP8 BEAM2 SEPARATION -0.015 MM IP8 BEAM2 CROSSING -0.015 MM
39 SECONDS_WAIT 10.0
40 RELATIVE_TRIM IP8 BEAM1 SEPARATION 0.015 MM IP8 BEAM1 CROSSING 0.015 MM IP8 BEAM2 SEPARATION -0.015 MM IP8 BEAM2 CROSSING -0.015 MM
41 SECONDS_WAIT 10.0
42 RELATIVE_TRIM IP8 BEAM1 SEPARATION 0.015 MM IP8 BEAM1 CROSSING 0.015 MM IP8 BEAM2 SEPARATION -0.015 MM IP8 BEAM2 CROSSING -0.015 MM
43 SECONDS_WAIT 10.0
44 RELATIVE_TRIM IP8 BEAM1 SEPARATION 0.015 MM IP8 BEAM1 CROSSING 0.015 MM IP8 BEAM2 SEPARATION -0.015 MM IP8 BEAM2 CROSSING -0.015 MM
45 SECONDS_WAIT 10.0
46 RELATIVE_TRIM IP8 BEAM1 SEPARATION 0.015 MM IP8 BEAM1 CROSSING 0.015 MM IP8 BEAM2 SEPARATION -0.015 MM IP8 BEAM2 CROSSING -0.015 MM
47 SECONDS_WAIT 10.0
48 RELATIVE_TRIM IP8 BEAM1 SEPARATION 0.015 MM IP8 BEAM1 CROSSING 0.015 MM IP8 BEAM2 SEPARATION -0.015 MM IP8 BEAM2 CROSSING -0.015 MM
49 SECONDS_WAIT 10.0
50 RELATIVE_TRIM IP8 BEAM1 SEPARATION 0.015 MM IP8 BEAM1 CROSSING 0.015 MM IP8 BEAM2 SEPARATION -0.015 MM IP8 BEAM2 CROSSING -0.015 MM
51 SECONDS_WAIT 10.0
52 RELATIVE_TRIM IP8 BEAM1 SEPARATION 0.015 MM IP8 BEAM1 CROSSING 0.015 MM IP8 BEAM2 SEPARATION -0.015 MM IP8 BEAM2 CROSSING -0.015 MM
53 SECONDS_WAIT 10.0
54 RELATIVE_TRIM IP8 BEAM1 SEPARATION 0.015 MM IP8 BEAM1 CROSSING 0.015 MM IP8 BEAM2 SEPARATION -0.015 MM IP8 BEAM2 CROSSING -0.015 MM
55 SECONDS_WAIT 10.0
56 RELATIVE_TRIM IP8 BEAM1 SEPARATION 0.015 MM IP8 BEAM1 CROSSING 0.015 MM IP8 BEAM2 SEPARATION -0.015 MM IP8 BEAM2 CROSSING -0.015 MM
57 SECONDS_WAIT 10.0
58 RELATIVE_TRIM IP8 BEAM1 SEPARATION 0.015 MM IP8 BEAM1 CROSSING 0.015 MM IP8 BEAM2 SEPARATION -0.015 MM IP8 BEAM2 CROSSING -0.015 MM
59 SECONDS_WAIT 10.0
60 RELATIVE_TRIM IP8 BEAM1 SEPARATION 0.015 MM IP8 BEAM1 CROSSING 0.015 MM IP8 BEAM2 SEPARATION -0.015 MM IP8 BEAM2 CROSSING -0.015 MM
61 SECONDS_WAIT 10.0
62 RELATIVE_TRIM IP8 BEAM1 SEPARATION 0.015 MM IP8 BEAM1 CROSSING 0.015 MM IP8 BEAM2 SEPARATION -0.015 MM IP8 BEAM2 CROSSING -0.015 MM
63 SECONDS_WAIT 10.0
64 RELATIVE_TRIM IP8 BEAM1 SEPARATION -0.225 MM IP8 BEAM1 CROSSING -0.225 MM IP8 BEAM2 SEPARATION 0.225 MM IP8 BEAM2 CROSSING 0.225 MM
65 SECONDS_WAIT 10.0
66 END_SEQUENCE
