{
    "energy": 6800,
    "particle_mass": 0.938,
    "emittance": 3.5e-6,
    "beta_star": {
        "IP1": 0.5,
        "IP2": 0.5,
        "IP5": 0.5,
        "IP8": 1.5
    },
    "crossing_angle": {
        "IP1": 170e-6,
        "IP2": 170e-6,
        "IP5": 170e-6,
        "IP8": 135e-6
    },
    "scan_limits": {
        "IP1": 4.5,
        "IP2": 4.5,
        "IP5": 4.5,
        "IP8": 4.5
    },
    "trim_rate": 0.025,
    "intensity": 2e9,
    "bunch_pair_collisions": {
        "IP1": 50,
        "IP2": 50,
        "IP5": 50,
        "IP8": 50
    },
    "bunch_length": 0.0787
}

