0 INITIALIZE_TRIM IP(IP8) BEAM(BEAM1,BEAM2) PLANE(SEPARATION,CROSSING) UNITS(MM)
1 SECONDS_WAIT 10.0
2 RELATIVE_TRIM IP8 BEAM1 SEPARATION -0.300 MM IP8 BEAM2 SEPARATION 0.300 MM
3 SECONDS_WAIT 10.0
4 RELATIVE_TRIM IP8 BEAM1 SEPARATION 0.020 MM IP8 BEAM2 SEPARATION -0.020 MM
5 SECONDS_WAIT 10.0
6 RELATIVE_TRIM IP8 BEAM1 SEPARATION 0.020 MM IP8 BEAM2 SEPARATION -0.020 MM
7 SECONDS_WAIT 10.0
8 RELATIVE_TRIM IP8 BEAM1 SEPARATION 0.020 MM IP8 BEAM2 SEPARATION -0.020 MM
9 SECONDS_WAIT 10.0
10 RELATIVE_TRIM IP8 BEAM1 SEPARATION 0.020 MM IP8 BEAM2 SEPARATION -0.020 MM
11 SECONDS_WAIT 10.0
12 RELATIVE_TRIM IP8 BEAM1 SEPARATION 0.020 MM IP8 BEAM2 SEPARATION -0.020 MM
13 SECONDS_WAIT 10.0
14 RELATIVE_TRIM IP8 BEAM1 SEPARATION 0.020 MM IP8 BEAM2 SEPARATION -0.020 MM
15 SECONDS_WAIT 10.0
16 RELATIVE_TRIM IP8 BEAM1 SEPARATION 0.020 MM IP8 BEAM2 SEPARATION -0.020 MM
17 SECONDS_WAIT 10.0
18 RELATIVE_TRIM IP8 BEAM1 SEPARATION 0.020 MM IP8 BEAM2 SEPARATION -0.020 MM
19 SECONDS_WAIT 10.0
20 RELATIVE_TRIM IP8 BEAM1 SEPARATION 0.020 MM IP8 BEAM2 SEPARATION -0.020 MM
21 SECONDS_WAIT 10.0
22 RELATIVE_TRIM IP8 BEAM1 SEPARATION 0.020 MM IP8 BEAM2 SEPARATION -0.020 MM
23 SECONDS_WAIT 10.0
24 RELATIVE_TRIM IP8 BEAM1 SEPARATION 0.020 MM IP8 BEAM2 SEPARATION -0.020 MM
25 SECONDS_WAIT 10.0
26 RELATIVE_TRIM IP8 BEAM1 SEPARATION 0.020 MM IP8 BEAM2 SEPARATION -0.020 MM
27 SECONDS_WAIT 10.0
28 RELATIVE_TRIM IP8 BEAM1 SEPARATION 0.020 MM IP8 BEAM2 SEPARATION -0.020 MM
29 SECONDS_WAIT 10.0
30 RELATIVE_TRIM IP8 BEAM1 SEPARATION 0.020 MM IP8 BEAM2 SEPARATION -0.020 MM
31 SECONDS_WAIT 10.0
32 RELATIVE_TRIM IP8 BEAM1 SEPARATION 0.020 MM IP8 BEAM2 SEPARATION -0.020 MM
33 SECONDS_WAIT 10.0
34 RELATIVE_TRIM IP8 BEAM1 SEPARATION 0.020 MM IP8 BEAM2 SEPARATION -0.020 MM
35 SECONDS_WAIT 10.0
36 RELATIVE_TRIM IP8 BEAM1 SEPARATION 0.020 MM IP8 BEAM2 SEPARATION -0.020 MM
37 SECONDS_WAIT 10.0
38 RELATIVE_TRIM IP8 BEAM1 SEPARATION 0.020 MM IP8 BEAM2 SEPARATION -0.020 MM
39 SECONDS_WAIT 10.0
40 RELATIVE_TRIM IP8 BEAM1 SEPARATION 0.020 MM IP8 BEAM2 SEPARATION -0.020 MM
41 SECONDS_WAIT 10.0
42 RELATIVE_TRIM IP8 BEAM1 SEPARATION 0.020 MM IP8 BEAM2 SEPARATION -0.020 MM
43 SECONDS_WAIT 10.0
44 RELATIVE_TRIM IP8 BEAM1 SEPARATION 0.020 MM IP8 BEAM2 SEPARATION -0.020 MM
45 SECONDS_WAIT 10.0
46 RELATIVE_TRIM IP8 BEAM1 SEPARATION 0.020 MM IP8 BEAM2 SEPARATION -0.020 MM
47 SECONDS_WAIT 10.0
48 RELATIVE_TRIM IP8 BEAM1 SEPARATION 0.020 MM IP8 BEAM2 SEPARATION -0.020 MM
49 SECONDS_WAIT 10.0
50 RELATIVE_TRIM IP8 BEAM1 SEPARATION 0.020 MM IP8 BEAM2 SEPARATION -0.020 MM
51 SECONDS_WAIT 10.0
52 RELATIVE_TRIM IP8 BEAM1 SEPARATION 0.020 MM IP8 BEAM2 SEPARATION -0.020 MM
53 SECONDS_WAIT 10.0
54 RELATIVE_TRIM IP8 BEAM1 SEPARATION 0.020 MM IP8 BEAM2 SEPARATION -0.020 MM
55 SECONDS_WAIT 10.0
56 RELATIVE_TRIM IP8 BEAM1 SEPARATION 0.020 MM IP8 BEAM2 SEPARATION -0.020 MM
57 SECONDS_WAIT 10.0
58 RELATIVE_TRIM IP8 BEAM1 SEPARATION 0.020 MM IP8 BEAM2 SEPARATION -0.020 MM
59 SECONDS_WAIT 10.0
60 RELATIVE_TRIM IP8 BEAM1 SEPARATION 0.020 MM IP8 BEAM2 SEPARATION -0.020 MM
61 SECONDS_WAIT 10.0
62 RELATIVE_TRIM IP8 BEAM1 SEPARATION 0.020 MM IP8 BEAM2 SEPARATION -0.020 MM
63 SECONDS_WAIT 10.0
64 RELATIVE_TRIM IP8 BEAM1 SEPARATION -0.300 MM IP8 BEAM2 SEPARATION 0.300 MM
65 SECONDS_WAIT 10.0
66 SECONDS_WAIT 10.0
67 RELATIVE_TRIM IP8 BEAM1 CROSSING -0.300 MM IP8 BEAM2 CROSSING 0.300 MM
68 SECONDS_WAIT 10.0
69 RELATIVE_TRIM IP8 BEAM1 CROSSING 0.020 MM IP8 BEAM2 CROSSING -0.020 MM
70 SECONDS_WAIT 10.0
71 RELATIVE_TRIM IP8 BEAM1 CROSSING 0.020 MM IP8 BEAM2 CROSSING -0.020 MM
72 SECONDS_WAIT 10.0
73 RELATIVE_TRIM IP8 BEAM1 CROSSING 0.020 MM IP8 BEAM2 CROSSING -0.020 MM
74 SECONDS_WAIT 10.0
75 RELATIVE_TRIM IP8 BEAM1 CROSSING 0.020 MM IP8 BEAM2 CROSSING -0.020 MM
76 SECONDS_WAIT 10.0
77 RELATIVE_TRIM IP8 BEAM1 CROSSING 0.020 MM IP8 BEAM2 CROSSING -0.020 MM
78 SECONDS_WAIT 10.0
79 RELATIVE_TRIM IP8 BEAM1 CROSSING 0.020 MM IP8 BEAM2 CROSSING -0.020 MM
80 SECONDS_WAIT 10.0
81 RELATIVE_TRIM IP8 BEAM1 CROSSING 0.020 MM IP8 BEAM2 CROSSING -0.020 MM
82 SECONDS_WAIT 10.0
83 RELATIVE_TRIM IP8 BEAM1 CROSSING 0.020 MM IP8 BEAM2 CROSSING -0.020 MM
84 SECONDS_WAIT 10.0
85 RELATIVE_TRIM IP8 BEAM1 CROSSING 0.020 MM IP8 BEAM2 CROSSING -0.020 MM
86 SECONDS_WAIT 10.0
87 RELATIVE_TRIM IP8 BEAM1 CROSSING 0.020 MM IP8 BEAM2 CROSSING -0.020 MM
88 SECONDS_WAIT 10.0
89 RELATIVE_TRIM IP8 BEAM1 CROSSING 0.020 MM IP8 BEAM2 CROSSING -0.020 MM
90 SECONDS_WAIT 10.0
91 RELATIVE_TRIM IP8 BEAM1 CROSSING 0.020 MM IP8 BEAM2 CROSSING -0.020 MM
92 SECONDS_WAIT 10.0
93 RELATIVE_TRIM IP8 BEAM1 CROSSING 0.020 MM IP8 BEAM2 CROSSING -0.020 MM
94 SECONDS_WAIT 10.0
95 RELATIVE_TRIM IP8 BEAM1 CROSSING 0.020 MM IP8 BEAM2 CROSSING -0.020 MM
96 SECONDS_WAIT 10.0
97 RELATIVE_TRIM IP8 BEAM1 CROSSING 0.020 MM IP8 BEAM2 CROSSING -0.020 MM
98 SECONDS_WAIT 10.0
99 RELATIVE_TRIM IP8 BEAM1 CROSSING 0.020 MM IP8 BEAM2 CROSSING -0.020 MM
100 SECONDS_WAIT 10.0
101 RELATIVE_TRIM IP8 BEAM1 CROSSING 0.020 MM IP8 BEAM2 CROSSING -0.020 MM
102 SECONDS_WAIT 10.0
103 RELATIVE_TRIM IP8 BEAM1 CROSSING 0.020 MM IP8 BEAM2 CROSSING -0.020 MM
104 SECONDS_WAIT 10.0
105 RELATIVE_TRIM IP8 BEAM1 CROSSING 0.020 MM IP8 BEAM2 CROSSING -0.020 MM
106 SECONDS_WAIT 10.0
107 RELATIVE_TRIM IP8 BEAM1 CROSSING 0.020 MM IP8 BEAM2 CROSSING -0.020 MM
108 SECONDS_WAIT 10.0
109 RELATIVE_TRIM IP8 BEAM1 CROSSING 0.020 MM IP8 BEAM2 CROSSING -0.020 MM
110 SECONDS_WAIT 10.0
111 RELATIVE_TRIM IP8 BEAM1 CROSSING 0.020 MM IP8 BEAM2 CROSSING -0.020 MM
112 SECONDS_WAIT 10.0
113 RELATIVE_TRIM IP8 BEAM1 CROSSING 0.020 MM IP8 BEAM2 CROSSING -0.020 MM
114 SECONDS_WAIT 10.0
115 RELATIVE_TRIM IP8 BEAM1 CROSSING 0.020 MM IP8 BEAM2 CROSSING -0.020 MM
116 SECONDS_WAIT 10.0
117 RELATIVE_TRIM IP8 BEAM1 CROSSING 0.020 MM IP8 BEAM2 CROSSING -0.020 MM
118 SECONDS_WAIT 10.0
119 RELATIVE_TRIM IP8 BEAM1 CROSSING 0.020 MM IP8 BEAM2 CROSSING -0.020 MM
120 SECONDS_WAIT 10.0
121 RELATIVE_TRIM IP8 BEAM1 CROSSING 0.020 MM IP8 BEAM2 CROSSING -0.020 MM
122 SECONDS_WAIT 10.0
123 RELATIVE_TRIM IP8 BEAM1 CROSSING 0.020 MM IP8 BEAM2 CROSSING -0.020 MM
124 SECONDS_WAIT 10.0
125 RELATIVE_TRIM IP8 BEAM1 CROSSING 0.020 MM IP8 BEAM2 CROSSING -0.020 MM
126 SECONDS_WAIT 10.0
127 RELATIVE_TRIM IP8 BEAM1 CROSSING 0.020 MM IP8 BEAM2 CROSSING -0.020 MM
128 SECONDS_WAIT 10.0
129 RELATIVE_TRIM IP8 BEAM1 CROSSING -0.300 MM IP8 BEAM2 CROSSING 0.300 MM
130 SECONDS_WAIT 10.0
131 END_SEQUENCE
